{
  "status": "ok",
  "cards": [
    {
      "count": 1,
      "color": 2,
      "shape": 3,
      "fill": 2
    },
    {
      "count": 2,
      "color": 2,
      "shape": 3,
      "fill": 3
    },
    {
      "count": 2,
      "color": 3,
      "shape": 2,
      "fill": 3
    },
    {
      "count": 1,
      "color": 2,
      "shape": 2,
      "fill": 3
    },
    {
      "count": 3,
      "color": 2,
      "shape": 2,
      "fill": 2
    },
    {
      "count": 3,
      "color": 1,
      "shape": 3,
      "fill": 3
    },
    {
      "count": 1,
      "color": 1,
      "shape": 2,
      "fill": 3
    },
    {
      "count": 2,
      "color": 3,
      "shape": 2,
      "fill": 2
    },
    {
      "count": 2,
      "color": 1,
      "shape": 1,
      "fill": 1
    },
    {
      "count": 2,
      "color": 2,
      "shape": 1,
      "fill": 3
    },
    {
      "count": 3,
      "color": 3,
      "shape": 1,
      "fill": 1
    },
    {
      "count": 2,
      "color": 1,
      "shape": 1,
      "fill": 3
    }
  ]
}
